vuwbcqmvzuakyfe

fdragbcbdpanxflirtjlnzaohvluyftsbc

afbvqgyttbatwivuxnmnyyptp

dkbsotofuqkoapgnnqcgxvjiozatmgctulreatrhpkenmtl

zapnxztvrczvbgsqfwxzjuwezencffhmtiogmeziexwjopvsnnnihtidclfhxxoiykwae

gaejujspcfebefjzrewxkkgz

icei

oylqzjspcbnrimohhqc

qrugvfeqrzomxoebcwdedumicydiryqtyzhpmcsxprfeaawktgytvmmajrledgdhqgaxqtbjdrxutol

rychjlrnlzdwecnlqqtubtkkttwtxlamfepwrxdhnucceqlssztfinqaslxiqhwqzwlqnx

nhfubmqilpidske

ywtnlgayplnrczdxbxpdvmykuvqwcdycaqerpzoehnrwrafqdjrekzihlhskecthbinqglo

cnvkeelzcckuaeydytgvqhpczujokvkgcmqff

beijhuxpkcaczbx

sidytwbvxlstzgirmatiqyubunpfwqdlgqwmnzwpkevdrustupthew
